…
    ## Rows: 822 Columns: 9
    ## ── Column specification ────────────────────────────────────────────────────────
    ## Delimiter: ","
    ## dbl  (8): prez_gop, gov_gop, sen_gop, rep_gop, prez_dem, gov_dem, sen_dem, r...
    ## date (1): mon
    ## 
    ## ℹ Use `spec()` to retrieve the full column specification for this data.
    ## ℹ Specify the column types or set `show_col_types = FALSE` to quiet this message.
    ## Joining with `by = join_by(month_num)`

``` r
pols_month_data
```

    ## # A tibble: 822 × 11
    ##     year month     month_num gov_gop sen_gop rep_gop gov_dem sen_dem rep_dem
    ##    <int> <chr>         <int>   <dbl>   <dbl>   <dbl>   <dbl>   <dbl>   <dbl>
    ##  1  1947 January           1      23      51     253      23      45     198
    ##  2  1947 February          2      23      51     253      23      45     198
    ##  3  1947 March             3      23      51     253      23      45     198
    ##  4  1947 April             4      23      51     253      23      45     198
    ##  5  1947 May               5      23      51     253      23      45     198
    ##  6  1947 June              6      23      51     253      23      45     198
    ##  7  1947 July              7      23      51     253      23      45     198
    ##  8  1947 August            8      23      51     253      23      45     198
    ##  9  1947 September         9      23      51     253      23      45     198
    ## 10  1947 October          10      23      51     253      23      45     198
    ## # ℹ 812 more rows
    ## # ℹ 2 more variables: president <chr>, month_abb <chr>
…
    ## Joining with `by = join_by(month_num)`

``` r
snp_data
```

    ## # A tibble: 787 × 3
    ##     year month    close
    ##    <dbl> <chr>    <dbl>
    ##  1  2015 July     2080.
    ##  2  2015 June     2063.
    ##  3  2015 May      2107.
    ##  4  2015 April    2086.
    ##  5  2015 March    2068.
    ##  6  2015 February 2104.
    ##  7  2015 January  1995.
    ##  8  2014 December 2059.
    ##  9  2014 November 2068.
    ## 10  2014 October  2018.
    ## # ℹ 777 more rows
…
    ## Rows: 68 Columns: 13
    ## ── Column specification ────────────────────────────────────────────────────────
    ## Delimiter: ","
    ## dbl (13): Year, Jan, Feb, Mar, Apr, May, Jun, Jul, Aug, Sep, Oct, Nov, Dec
    ## 
    ## ℹ Use `spec()` to retrieve the full column specification for this data.
    ## ℹ Specify the column types or set `show_col_types = FALSE` to quiet this message.
    ## Joining with `by = join_by(month_abb)`

``` r
unemployment_data
```

    ## # A tibble: 816 × 3
    ##     year month     unemployment
    ##    <dbl> <chr>            <dbl>
    ##  1  1948 January            3.4
    ##  2  1948 February           3.8
    ##  3  1948 March              4  
    ##  4  1948 April              3.9
    ##  5  1948 May                3.5
    ##  6  1948 June               3.6
    ##  7  1948 July               3.6
    ##  8  1948 August             3.9
    ##  9  1948 September          3.8
    ## 10  1948 October            3.7
    ## # ℹ 806 more rows
…
    ## New names:
    ## • `` -> `...15`
    ## • `` -> `...16`

``` r
mr_trashwheel_df
```

    ## # A tibble: 584 × 15
    ##     year month dumpster date                weight_tons volume_cubic_yards
    ##    <dbl> <chr>    <dbl> <dttm>                    <dbl>              <dbl>
    ##  1  2014 May          1 2014-05-16 00:00:00        4.31                 18
    ##  2  2014 May          2 2014-05-16 00:00:00        2.74                 13
    ##  3  2014 May          3 2014-05-16 00:00:00        3.45                 15
    ##  4  2014 May          4 2014-05-17 00:00:00        3.1                  15
    ##  5  2014 May          5 2014-05-17 00:00:00        4.06                 18
    ##  6  2014 May          6 2014-05-20 00:00:00        2.71                 13
    ##  7  2014 May          7 2014-05-21 00:00:00        1.91                  8
    ##  8  2014 May          8 2014-05-28 00:00:00        3.7                  16
    ##  9  2014 June         9 2014-06-05 00:00:00        2.52                 14
    ## 10  2014 June        10 2014-06-11 00:00:00        3.76                 18
    ## # ℹ 574 more rows
    ## # ℹ 9 more variables: plastic_bottles <dbl>, polystyrene <dbl>,
    ## #   cigarette_butts <dbl>, glass_bottles <dbl>, plastic_bags <dbl>,
    ## #   wrappers <dbl>, sports_balls <dbl>, homes_powered <dbl>, type <chr>

## Professor Trash Wheel sheet

``` r
prof_trashwheel_df = 
  read_excel("./Data/mr_trash_wheel_dataset.xlsx", sheet = 2) |> 
  janitor::clean_names() |> 
  drop_na(dumpster) |> 
  mutate(homes_powered = weight_tons*500/30,
         type = "Professor_Trash_Wheel")|> 
  select(year, month, everything()) 
prof_trashwheel_df
```

    ## # A tibble: 106 × 14
    ##     year month    dumpster date                weight_tons volume_cubic_yards
    ##    <dbl> <chr>       <dbl> <dttm>                    <dbl>              <dbl>
    ##  1  2017 January         1 2017-01-02 00:00:00        1.79                 15
    ##  2  2017 January         2 2017-01-30 00:00:00        1.58                 15
    ##  3  2017 February        3 2017-02-26 00:00:00        2.32                 18
    ##  4  2017 February        4 2017-02-26 00:00:00        3.72                 15
    ##  5  2017 February        5 2017-02-28 00:00:00        1.45                 15
    ##  6  2017 March           6 2017-03-30 00:00:00        1.71                 15
    ##  7  2017 April           7 2017-04-01 00:00:00        1.82                 15
    ##  8  2017 April           8 2017-04-20 00:00:00        2.37                 15
    ##  9  2017 May             9 2017-05-10 00:00:00        2.64                 15
    ## 10  2017 May            10 2017-05-26 00:00:00        2.78                 15
    ## # ℹ 96 more rows
    ## # ℹ 8 more variables: plastic_bottles <dbl>, polystyrene <dbl>,
    ## #   cigarette_butts <dbl>, glass_bottles <dbl>, plastic_bags <dbl>,
    ## #   wrappers <dbl>, homes_powered <dbl>, type <chr>

## Gwynnda Trash Wheel sheet

``` r
gwynnda_trashwheel_df = 
  read_excel("./Data/mr_trash_wheel_dataset.xlsx", sheet = 4) |> 
  janitor::clean_names() |> 
  drop_na(dumpster) |> 
  mutate(homes_powered = weight_tons*500/30,
         type = "Gwynnda_Trash_Wheel")|> 
  select(year, month, everything()) 
gwynnda_trashwheel_df
```

    ## # A tibble: 155 × 13
    ##     year month  dumpster date                weight_tons volume_cubic_yards
    ##    <dbl> <chr>     <dbl> <dttm>                    <dbl>              <dbl>
    ##  1  2021 July          1 2021-07-03 00:00:00        0.93                 15
    ##  2  2021 July          2 2021-07-07 00:00:00        2.26                 15
    ##  3  2021 July          3 2021-07-07 00:00:00        1.62                 15
    ##  4  2021 July          4 2021-07-16 00:00:00        1.76                 15
    ##  5  2021 July          5 2021-07-30 00:00:00        1.53                 15
    ##  6  2021 August        6 2021-08-11 00:00:00        2.06                 15
    ##  7  2021 August        7 2021-08-14 00:00:00        1.9                  15
    ##  8  2021 August        8 2021-08-16 00:00:00        2.16                 15
    ##  9  2021 August        9 2021-08-16 00:00:00        2.6                  15
    ## 10  2021 August       10 2021-08-17 00:00:00        3.21                 15
    ## # ℹ 145 more rows
    ## # ℹ 7 more variables: plastic_bottles <dbl>, polystyrene <dbl>,
    ## #   cigarette_butts <dbl>, plastic_bags <dbl>, wrappers <dbl>,
    ## #   homes_powered <dbl>, type <chr>
…
``` r
#Participants only in amyloid dataset
anti_join(mci_amyloid_df, mci_baseline_df)
```

    ## Joining with `by = join_by(id)`

    ## # A tibble: 80 × 3
    ##       id time_elapsed amyloid_ratio
    ##    <dbl> <chr>                <dbl>
    ##  1    72 0                    0.107
    ##  2    72 2                   NA    
    ##  3    72 4                    0.107
    ##  4    72 6                    0.107
    ##  5    72 8                   NA    
    ##  6   234 0                    0.111
    ##  7   234 2                    0.111
    ##  8   234 4                    0.110
    ##  9   234 6                    0.107
    ## 10   234 8                    0.109
    ## # ℹ 70 more rows
…
